<svg width="40" height="40" viewBox="0 0 40 40" fill="none" xmlns="http://www.w3.org/2000/svg">
<path d="M13.331 6.2069L9.65515 0H16.3241L20 6.2069H13.331Z" fill="url(#paint0_linear)"/>
<path d="M19.9999 6.2069L23.6757 0H30.3447L26.6688 6.2069H19.9999Z" fill="url(#paint1_linear)"/>
<path d="M27.1585 6.55847C27.07 6.20742 26.8471 5.90523 26.5378 5.71709C26.3211 5.5869 26.0733 5.51779 25.8205 5.51709H14.1792C13.9485 5.51874 13.7215 5.57548 13.5171 5.68261C13.1783 5.86614 12.9329 6.18424 12.8412 6.55847L11.8481 10.5309H28.1516L27.1585 6.55847Z" fill="#547580"/>
<path d="M19.9999 40C28.7603 40 35.862 32.8983 35.862 24.1379C35.862 15.3776 28.7603 8.27588 19.9999 8.27588C11.2395 8.27588 4.13782 15.3776 4.13782 24.1379C4.13782 32.8983 11.2395 40 19.9999 40Z" fill="#F0C419"/>
<path d="M34.4068 17.5105C28.3911 15.3116 21.6432 16.9472 17.302 21.6565C12.9607 26.3658 11.8784 33.2242 14.5585 39.0415C7.8053 36.5779 3.55287 29.881 4.19542 22.7212C4.83798 15.5613 10.2149 9.72859 17.2989 8.50679C24.3829 7.28499 31.403 10.9796 34.4068 17.5105Z" fill="#F3D55B"/>
<path d="M24.1308 37.2416C24.0665 37.2416 24.0026 37.2325 23.9409 37.2147C22.9526 36.9323 21.9948 36.5525 21.0816 36.0809C20.8726 35.9728 20.7332 35.7657 20.7116 35.5314C20.6901 35.2972 20.7895 35.0681 20.9752 34.9238C21.6053 34.4407 22.1566 33.863 22.6097 33.2111C22.8269 32.902 23.2523 32.8253 23.5639 33.0389C23.8754 33.2525 23.9572 33.677 23.7472 33.991C23.424 34.4605 23.0554 34.8971 22.6467 35.2945C23.1915 35.5273 23.7503 35.7257 24.32 35.8885C24.6511 35.9826 24.8621 36.3065 24.8144 36.6474C24.7667 36.9884 24.475 37.2419 24.1307 37.2416L24.1308 37.2416Z" fill="#F29C1F"/>
<path d="M27.8295 35.2273C27.0492 35.2276 26.2706 35.1567 25.5032 35.0155C25.2922 34.9764 25.1114 34.8413 25.0141 34.6501C24.9168 34.4588 24.914 34.2331 25.0067 34.0395C25.3242 33.3792 25.5456 32.6768 25.664 31.9537C25.7248 31.5777 26.079 31.3221 26.455 31.383C26.8311 31.4438 27.0866 31.798 27.0258 32.174C26.9367 32.7223 26.7967 33.261 26.6076 33.7833C27.1598 33.8419 27.7155 33.8606 28.2704 33.8395C28.6511 33.825 28.9715 34.1219 28.986 34.5026C29.0005 34.8833 28.7037 35.2036 28.323 35.2182C28.1586 35.2242 27.9941 35.2273 27.8295 35.2273Z" fill="#F29C1F"/>
<path d="M28.7309 32.6898C28.5431 32.6898 28.3634 32.6132 28.2334 32.4777C28.1033 32.3422 28.0341 32.1595 28.0418 31.9719C28.0728 31.2392 28.0124 30.5055 27.8621 29.7877C27.8112 29.5466 27.8928 29.2967 28.0761 29.1321C28.2595 28.9675 28.5167 28.9132 28.7509 28.9896C28.9852 29.0661 29.1608 29.2617 29.2117 29.5028C29.3272 30.0522 29.3968 30.6102 29.4199 31.171C29.9337 31.0536 30.438 30.8977 30.9285 30.7047C31.1586 30.611 31.4213 30.6482 31.6162 30.8022C31.8111 30.9563 31.9082 31.2032 31.8702 31.4487C31.8323 31.6942 31.6652 31.9004 31.4329 31.9884C30.5946 32.3194 29.7208 32.5525 28.829 32.6829C28.7965 32.6876 28.7637 32.6899 28.7309 32.6898Z" fill="#F29C1F"/>
<path d="M30.7047 29.5193C30.4027 29.5191 30.1359 29.3227 30.046 29.0344C29.8288 28.33 29.5315 27.6529 29.16 27.0163C28.9704 26.6881 29.0811 26.2684 29.4079 26.0765C29.7348 25.8846 30.1552 25.9924 30.3494 26.3179C30.6316 26.7996 30.876 27.3026 31.0804 27.8221C31.5208 27.5464 31.9405 27.2389 32.3362 26.9021C32.524 26.7426 32.7826 26.6954 33.0147 26.7783C33.2467 26.8611 33.4169 27.0615 33.4612 27.3039C33.5054 27.5463 33.417 27.7939 33.2292 27.9534C32.5518 28.5314 31.8112 29.0308 31.0215 29.4422C30.9236 29.4928 30.8149 29.5193 30.7047 29.5193Z" fill="#F29C1F"/>
<path d="M31.5506 25.8852C31.5328 25.8852 31.5146 25.8845 31.4967 25.8832C31.2923 25.8671 31.1056 25.761 30.9872 25.5935C30.5688 24.9969 30.0833 24.4502 29.5402 23.9643C29.2607 23.7102 29.2376 23.2785 29.4885 22.996C29.7394 22.7136 30.1708 22.6855 30.4562 22.9332C30.8653 23.2978 31.2458 23.6934 31.5941 24.1166C31.9312 23.71 32.2394 23.2802 32.5164 22.8305C32.7166 22.5063 33.1416 22.4057 33.4657 22.6059C33.7899 22.806 33.8905 23.231 33.6904 23.5552C33.2206 24.32 32.6689 25.0314 32.045 25.6767C31.9151 25.8101 31.7368 25.8853 31.5506 25.8852Z" fill="#F29C1F"/>
<path d="M31.2688 22.1582C31.1202 22.1582 30.9755 22.1101 30.8564 22.0211C30.2816 21.5896 29.6574 21.228 28.9972 20.9439C28.7705 20.8473 28.6126 20.6371 28.5829 20.3925C28.5532 20.1479 28.6563 19.906 28.8533 19.758C29.0503 19.61 29.3113 19.5783 29.538 19.6749C30.0375 19.8886 30.5191 20.1419 30.9783 20.4323C31.1794 19.9334 31.3445 19.4206 31.4723 18.898C31.5292 18.6568 31.7112 18.4646 31.949 18.3947C32.1868 18.3248 32.4438 18.3879 32.6222 18.5599C32.8007 18.732 32.873 18.9865 32.8118 19.2267C32.5975 20.1071 32.2874 20.9614 31.8871 21.7742C31.7962 21.9577 31.6286 22.0914 31.4295 22.1393C31.3769 22.1517 31.3229 22.158 31.2688 22.1582Z" fill="#F29C1F"/>
<path d="M29.8588 18.7093C29.7871 18.7094 29.7159 18.6982 29.6477 18.6763C28.9558 18.4521 28.2394 18.312 27.514 18.2591C27.1341 18.2323 26.8478 17.9026 26.8745 17.5226C26.9013 17.1427 27.231 16.8564 27.611 16.8831C28.1637 16.9226 28.7123 17.0068 29.2513 17.135C29.2809 16.5999 29.268 16.0632 29.2129 15.5301C29.1834 15.2829 29.2895 15.0389 29.4905 14.8919C29.6914 14.7448 29.9561 14.7175 30.1828 14.8205C30.4095 14.9234 30.5632 15.1406 30.5848 15.3887C30.6792 16.2953 30.6648 17.21 30.542 18.1133C30.4952 18.4548 30.2035 18.7093 29.8588 18.7093Z" fill="#F29C1F"/>
<path d="M15.8689 37.242C15.5246 37.2424 15.2329 36.9888 15.1852 36.6479C15.1375 36.307 15.3485 35.9831 15.6796 35.889C16.2492 35.7262 16.8081 35.5278 17.3529 35.2949C16.9442 34.8976 16.5756 34.461 16.2524 33.9915C16.0424 33.6775 16.1242 33.253 16.4357 33.0394C16.7472 32.8258 17.1727 32.9025 17.3899 33.2116C17.843 33.8635 18.3943 34.4412 19.0244 34.9243C19.2101 35.0686 19.3095 35.2977 19.2879 35.5319C19.2664 35.7662 19.127 35.9733 18.918 36.0814C18.0048 36.553 17.047 36.9328 16.0587 37.2151C15.997 37.2329 15.9331 37.242 15.8689 37.242Z" fill="#F29C1F"/>
<path d="M12.1702 35.2272C12.0059 35.2272 11.8414 35.2241 11.6769 35.218C11.2962 35.2035 10.9993 34.8832 11.0138 34.5025C11.0283 34.1218 11.3487 33.8249 11.7294 33.8394C12.2843 33.8608 12.84 33.842 13.3922 33.7832C13.2031 33.2609 13.0631 32.7222 12.974 32.1739C12.9347 31.9307 13.0281 31.6849 13.2191 31.5292C13.4101 31.3735 13.6696 31.3315 13.9 31.419C14.1303 31.5066 14.2965 31.7104 14.3358 31.9536C14.4542 32.6767 14.6756 33.3791 14.9931 34.0394C15.0858 34.233 15.0831 34.4587 14.9857 34.65C14.8884 34.8412 14.7076 34.9763 14.4966 35.0154C13.7292 35.1566 12.9505 35.2275 12.1702 35.2272Z" fill="#F29C1F"/>
<path d="M11.2688 32.6896C11.2359 32.6897 11.203 32.6874 11.1705 32.6827C10.2787 32.5523 9.40503 32.3193 8.56677 31.9884C8.33444 31.9004 8.16738 31.6942 8.12944 31.4487C8.0915 31.2032 8.18854 30.9563 8.38347 30.8022C8.57841 30.6482 8.84111 30.611 9.07118 30.7047C9.56166 30.8977 10.066 31.0536 10.5798 31.171C10.6029 30.6102 10.6725 30.0522 10.7879 29.5028C10.8388 29.2617 11.0145 29.0661 11.2487 28.9896C11.483 28.9132 11.7402 28.9675 11.9235 29.1321C12.1069 29.2967 12.1885 29.5466 12.1376 29.7877C11.9873 30.5055 11.9269 31.2392 11.9578 31.9719C11.9654 32.1595 11.8963 32.3421 11.7662 32.4776C11.6362 32.613 11.4565 32.6896 11.2688 32.6896Z" fill="#F29C1F"/>
<path d="M9.29509 29.5193C9.18484 29.5193 9.07619 29.4929 8.97827 29.4422C8.18855 29.0309 7.44792 28.5314 6.77055 27.9535C6.58275 27.7939 6.49432 27.5463 6.53857 27.3039C6.58283 27.0615 6.75304 26.8612 6.98509 26.7783C7.21714 26.6954 7.47578 26.7426 7.66358 26.9021C8.05923 27.2389 8.47892 27.5464 8.9193 27.8221C9.12375 27.3026 9.36816 26.7997 9.65033 26.3179C9.84452 25.9924 10.265 25.8846 10.5918 26.0765C10.9186 26.2684 11.0294 26.6881 10.8397 27.0163C10.4682 27.653 10.171 28.3302 9.95378 29.0347C9.86387 29.323 9.59707 29.5194 9.29509 29.5196V29.5193Z" fill="#F29C1F"/>
<path d="M8.4492 25.885C8.26299 25.885 8.0847 25.8097 7.95485 25.6762C7.33098 25.0309 6.77926 24.3195 6.30947 23.5547C6.10935 23.2305 6.20992 22.8055 6.53409 22.6054C6.85827 22.4053 7.28329 22.5058 7.4834 22.83C7.76039 23.2797 8.0686 23.7095 8.40575 24.1161C8.75406 23.6929 9.1345 23.2973 9.54368 22.9327C9.829 22.685 10.2605 22.7131 10.5113 22.9955C10.7622 23.278 10.7392 23.7097 10.4596 23.9639C9.91651 24.4498 9.43099 24.9964 9.01258 25.5931C8.89421 25.7606 8.7075 25.8667 8.50306 25.8828C8.4852 25.8843 8.46699 25.885 8.4492 25.885Z" fill="#F29C1F"/>
<path d="M8.73086 22.1581C8.67676 22.158 8.62284 22.1517 8.57017 22.1393C8.3711 22.0914 8.2035 21.9577 8.11259 21.7743C7.71227 20.9614 7.40219 20.1071 7.18789 19.2267C7.12666 18.9866 7.19904 18.732 7.37746 18.5599C7.55589 18.3879 7.81292 18.3248 8.05072 18.3947C8.28852 18.4646 8.47051 18.6568 8.52741 18.898C8.6552 19.4206 8.82029 19.9334 9.02141 20.4323C9.48062 20.1419 9.96232 19.8886 10.4619 19.6749C10.6886 19.5783 10.9496 19.61 11.1466 19.758C11.3436 19.906 11.4467 20.1479 11.417 20.3925C11.3873 20.6371 11.2294 20.8473 11.0027 20.9439C10.3425 21.228 9.71836 21.5896 9.14355 22.0212C9.02437 22.1101 8.8796 22.1582 8.73086 22.1581Z" fill="#F29C1F"/>
<path d="M10.141 18.7093C9.7963 18.7093 9.50455 18.4548 9.45775 18.1133C9.33495 17.21 9.3206 16.2953 9.41499 15.3887C9.43657 15.1406 9.59021 14.9234 9.81695 14.8205C10.0437 14.7175 10.3083 14.7448 10.5093 14.8919C10.7102 15.0389 10.8163 15.2829 10.7869 15.5301C10.7317 16.0632 10.7189 16.5999 10.7484 17.135C11.2875 17.0068 11.8361 16.9226 12.3888 16.8831C12.7687 16.8564 13.0985 17.1427 13.1252 17.5226C13.152 17.9026 12.8657 18.2323 12.4857 18.2591C11.7604 18.312 11.044 18.4521 10.3521 18.6763C10.2839 18.6982 10.2126 18.7094 10.141 18.7093Z" fill="#F29C1F"/>
<path d="M14.206 26.004C14.346 26.7413 14.7753 27.11 15.494 27.11C15.9887 27.11 16.3387 26.8907 16.544 26.452C16.7493 26.0133 16.852 25.2993 16.852 24.31C16.6467 24.5993 16.3667 24.8233 16.012 24.982C15.6573 25.1407 15.2607 25.22 14.822 25.22C14.2247 25.22 13.6927 25.0987 13.226 24.856C12.7593 24.604 12.3907 24.2353 12.12 23.75C11.8587 23.2553 11.728 22.658 11.728 21.958C11.728 21.2673 11.868 20.6653 12.148 20.152C12.4373 19.6387 12.8433 19.242 13.366 18.962C13.898 18.682 14.5233 18.542 15.242 18.542C16.6233 18.542 17.5893 18.9713 18.14 19.83C18.6907 20.6887 18.966 21.9533 18.966 23.624C18.966 24.8373 18.854 25.8407 18.63 26.634C18.4153 27.418 18.0467 28.0153 17.524 28.426C17.0107 28.8367 16.306 29.042 15.41 29.042C14.7007 29.042 14.094 28.902 13.59 28.622C13.0953 28.342 12.7127 27.9733 12.442 27.516C12.1807 27.0587 12.0313 26.5547 11.994 26.004H14.206ZM15.368 23.33C15.76 23.33 16.0727 23.2133 16.306 22.98C16.5393 22.7373 16.656 22.4107 16.656 22C16.656 21.552 16.5347 21.2067 16.292 20.964C16.0493 20.7213 15.7227 20.6 15.312 20.6C14.9013 20.6 14.5747 20.726 14.332 20.978C14.0987 21.2207 13.982 21.5567 13.982 21.986C13.982 22.3873 14.0987 22.714 14.332 22.966C14.5747 23.2087 14.92 23.33 15.368 23.33ZM20.2433 23.75C20.2433 22.1447 20.5513 20.88 21.1673 19.956C21.7926 19.032 22.7959 18.57 24.1773 18.57C25.5586 18.57 26.5573 19.032 27.1733 19.956C27.7986 20.88 28.1113 22.1447 28.1113 23.75C28.1113 25.374 27.7986 26.648 27.1733 27.572C26.5573 28.496 25.5586 28.958 24.1773 28.958C22.7959 28.958 21.7926 28.496 21.1673 27.572C20.5513 26.648 20.2433 25.374 20.2433 23.75ZM25.7593 23.75C25.7593 22.8073 25.6566 22.084 25.4513 21.58C25.2459 21.0667 24.8213 20.81 24.1773 20.81C23.5333 20.81 23.1086 21.0667 22.9033 21.58C22.6979 22.084 22.5953 22.8073 22.5953 23.75C22.5953 24.3847 22.6326 24.912 22.7073 25.332C22.7819 25.7427 22.9313 26.0787 23.1553 26.34C23.3886 26.592 23.7293 26.718 24.1773 26.718C24.6253 26.718 24.9613 26.592 25.1853 26.34C25.4186 26.0787 25.5726 25.7427 25.6473 25.332C25.7219 24.912 25.7593 24.3847 25.7593 23.75Z" fill="#AF8E06"/>
<defs>
<linearGradient id="paint0_linear" x1="10" y1="-2.07579e-07" x2="19.5" y2="5.5" gradientUnits="userSpaceOnUse">
<stop stop-color="#F9D553"/>
<stop offset="1" stop-color="#DFD29E"/>
</linearGradient>
<linearGradient id="paint1_linear" x1="30" y1="-5.70227e-07" x2="21" y2="5.5" gradientUnits="userSpaceOnUse">
<stop stop-color="#FFD231"/>
<stop offset="0.96875" stop-color="#EDE4C5"/>
</linearGradient>
</defs>
</svg>
