<svg width="28" height="28" viewBox="0 0 28 28" fill="none" xmlns="http://www.w3.org/2000/svg">
<path d="M13.72 7.175C13.7456 7.12252 13.7854 7.07829 13.8349 7.04735C13.8844 7.01641 13.9416 7 14 7C14.0584 7 14.1156 7.01641 14.1651 7.04735C14.2146 7.07829 14.2544 7.12252 14.28 7.175L15.3895 9.42375C15.4117 9.46924 15.4447 9.50863 15.4855 9.53851C15.5264 9.56839 15.5739 9.58787 15.624 9.59525L18.109 9.95575C18.3627 9.9925 18.466 10.3058 18.2805 10.486L16.485 12.2378C16.4488 12.2731 16.4217 12.3168 16.4062 12.365C16.3906 12.4131 16.387 12.4644 16.3957 12.5143L16.8192 14.9887C16.8288 15.0459 16.8222 15.1045 16.8002 15.1581C16.7782 15.2117 16.7417 15.2581 16.6948 15.2921C16.6479 15.3261 16.5924 15.3464 16.5347 15.3506C16.4769 15.3548 16.4191 15.3428 16.3677 15.316L14.1452 14.147C14.1007 14.1237 14.0512 14.1115 14.0009 14.1115C13.9506 14.1115 13.9011 14.1237 13.8565 14.147L11.634 15.316C11.5827 15.3423 11.5251 15.3539 11.4676 15.3495C11.4102 15.345 11.355 15.3247 11.3084 15.2908C11.2618 15.2569 11.2255 15.2107 11.2036 15.1573C11.1817 15.104 11.175 15.0457 11.1842 14.9887L11.6077 12.5143C11.6167 12.4645 11.6134 12.4134 11.5981 12.3652C11.5829 12.317 11.5562 12.2733 11.5202 12.2378L9.71775 10.486C9.67646 10.4455 9.64728 10.3942 9.63347 10.338C9.61967 10.2818 9.62179 10.2229 9.6396 10.1679C9.6574 10.1128 9.69019 10.0638 9.73429 10.0263C9.77838 9.98887 9.83204 9.96443 9.88925 9.95575L12.3742 9.59525C12.4243 9.58787 12.4719 9.56839 12.5127 9.53851C12.5536 9.50863 12.5865 9.46924 12.6087 9.42375L13.72 7.175Z" fill="#C2C2C2"/>
<path d="M3.5 3.5C3.5 2.57174 3.86875 1.6815 4.52513 1.02513C5.1815 0.368749 6.07174 0 7 0L21 0C21.9283 0 22.8185 0.368749 23.4749 1.02513C24.1313 1.6815 24.5 2.57174 24.5 3.5V27.125C24.4999 27.2833 24.4569 27.4386 24.3756 27.5743C24.2942 27.7101 24.1775 27.8212 24.038 27.8959C23.8985 27.9707 23.7413 28.0061 23.5832 27.9985C23.4251 27.991 23.272 27.9407 23.1402 27.853L14 22.9268L4.85975 27.853C4.72798 27.9407 4.5749 27.991 4.41681 27.9985C4.25872 28.0061 4.10153 27.9707 3.962 27.8959C3.82247 27.8212 3.70581 27.7101 3.62445 27.5743C3.54309 27.4386 3.50008 27.2833 3.5 27.125V3.5ZM7 1.75C6.53587 1.75 6.09075 1.93437 5.76256 2.26256C5.43437 2.59075 5.25 3.03587 5.25 3.5V25.4905L13.5153 21.147C13.6589 21.0514 13.8275 21.0005 14 21.0005C14.1725 21.0005 14.3411 21.0514 14.4848 21.147L22.75 25.4905V3.5C22.75 3.03587 22.5656 2.59075 22.2374 2.26256C21.9092 1.93437 21.4641 1.75 21 1.75H7Z" fill="#C2C2C2"/>
</svg>
