<svg width="18" height="18" viewBox="0 0 18 18" fill="none" xmlns="http://www.w3.org/2000/svg">
<path d="M9 1.125C9.61752 1.12491 10.2128 1.35567 10.6689 1.77197C11.125 2.18827 11.409 2.76004 11.4651 3.375H15.3C15.471 3.37505 15.6356 3.44002 15.7606 3.55678C15.8856 3.67353 15.9616 3.83337 15.9732 4.00399C15.9849 4.17462 15.9313 4.3433 15.8234 4.47597C15.7155 4.60863 15.5612 4.69539 15.3918 4.7187L15.3 4.725H14.7753L13.635 14.607C13.5842 15.0457 13.374 15.4503 13.0442 15.7441C12.7145 16.0378 12.2883 16.2001 11.8467 16.2H6.1533C5.71171 16.2001 5.28551 16.0378 4.95578 15.7441C4.62604 15.4503 4.41578 15.0457 4.365 14.607L3.2238 4.725H2.7C2.53689 4.72499 2.37929 4.66592 2.25636 4.55871C2.13343 4.4515 2.05348 4.3034 2.0313 4.1418L2.025 4.05C2.02501 3.88689 2.08408 3.72929 2.19129 3.60636C2.2985 3.48343 2.4466 3.40348 2.6082 3.3813L2.7 3.375H6.5349C6.59104 2.76004 6.87504 2.18827 7.33114 1.77197C7.78723 1.35567 8.38248 1.12491 9 1.125V1.125ZM7.65 6.75C7.4295 6.75 7.245 6.8895 7.2072 7.0731L7.2 7.1442V12.6567L7.2072 12.7269C7.245 12.9105 7.4295 13.05 7.65 13.05C7.8705 13.05 8.055 12.9105 8.0928 12.7269L8.1 12.6558V7.1451L8.0928 7.0731C8.055 6.8904 7.8705 6.75 7.65 6.75ZM10.35 6.75C10.1295 6.75 9.945 6.8895 9.9072 7.0731L9.9 7.1442V12.6567L9.9072 12.7269C9.945 12.9105 10.1295 13.05 10.35 13.05C10.5705 13.05 10.755 12.9105 10.7928 12.7269L10.8 12.6558V7.1451L10.7928 7.0731C10.755 6.8904 10.5705 6.7509 10.35 6.7509V6.75ZM9 2.475C8.4555 2.475 8.001 2.862 7.8975 3.375H10.1025C9.9981 2.862 9.5445 2.475 9 2.475V2.475Z" fill="#C2C2C2"/>
</svg>
