<svg width="32" height="32" viewBox="0 0 32 32" fill="none" xmlns="http://www.w3.org/2000/svg">
<path d="M7 4C6.20435 4 5.44129 4.31607 4.87868 4.87868C4.31607 5.44129 4 6.20435 4 7V25C4 25.7957 4.31607 26.5587 4.87868 27.1213C5.44129 27.6839 6.20435 28 7 28H25C25.7957 28 26.5587 27.6839 27.1213 27.1213C27.6839 26.5587 28 25.7957 28 25V7C28 6.20435 27.6839 5.44129 27.1213 4.87868C26.5587 4.31607 25.7957 4 25 4H7ZM8.66667 19.6667C8.66667 19.4015 8.77202 19.1471 8.95956 18.9596C9.1471 18.772 9.40145 18.6667 9.66667 18.6667H14.3333C14.5986 18.6667 14.8529 18.772 15.0404 18.9596C15.228 19.1471 15.3333 19.4015 15.3333 19.6667C15.3333 19.9319 15.228 20.1862 15.0404 20.3738C14.8529 20.5613 14.5986 20.6667 14.3333 20.6667H9.66667C9.40145 20.6667 9.1471 20.5613 8.95956 20.3738C8.77202 20.1862 8.66667 19.9319 8.66667 19.6667V19.6667ZM9.66667 11.3333H14.3333C14.5986 11.3333 14.8529 11.4387 15.0404 11.6262C15.228 11.8138 15.3333 12.0681 15.3333 12.3333C15.3333 12.5986 15.228 12.8529 15.0404 13.0404C14.8529 13.228 14.5986 13.3333 14.3333 13.3333H9.66667C9.40145 13.3333 9.1471 13.228 8.95956 13.0404C8.77202 12.8529 8.66667 12.5986 8.66667 12.3333C8.66667 12.0681 8.77202 11.8138 8.95956 11.6262C9.1471 11.4387 9.40145 11.3333 9.66667 11.3333ZM23.7067 10.2933C23.8939 10.4808 23.9991 10.735 23.9991 11C23.9991 11.265 23.8939 11.5192 23.7067 11.7067L21.04 14.3733C20.8525 14.5606 20.5983 14.6658 20.3333 14.6658C20.0683 14.6658 19.8142 14.5606 19.6267 14.3733L18.2933 13.04C18.1167 12.8504 18.0205 12.5997 18.0251 12.3406C18.0297 12.0816 18.1346 11.8344 18.3178 11.6512C18.5011 11.468 18.7482 11.363 19.0073 11.3584C19.2664 11.3539 19.5171 11.45 19.7067 11.6267L20.3333 12.2533L22.2933 10.2933C22.4808 10.1061 22.735 10.0009 23 10.0009C23.265 10.0009 23.5192 10.1061 23.7067 10.2933V10.2933ZM23.7067 19.04L21.04 21.7067C20.8525 21.8939 20.5983 21.9991 20.3333 21.9991C20.0683 21.9991 19.8142 21.8939 19.6267 21.7067L18.2933 20.3733C18.1951 20.2818 18.1163 20.1714 18.0616 20.0487C18.007 19.9261 17.9776 19.7936 17.9752 19.6594C17.9728 19.5251 17.9975 19.3917 18.0478 19.2672C18.0981 19.1427 18.173 19.0296 18.2679 18.9346C18.3629 18.8397 18.476 18.7648 18.6005 18.7145C18.7251 18.6642 18.8584 18.6395 18.9927 18.6419C19.127 18.6442 19.2594 18.6736 19.3821 18.7283C19.5047 18.7829 19.6151 18.8618 19.7067 18.96L20.3333 19.5867L22.2933 17.6267C22.3849 17.5284 22.4953 17.4496 22.6179 17.395C22.7406 17.3403 22.873 17.3109 23.0073 17.3085C23.1416 17.3062 23.2749 17.3309 23.3995 17.3812C23.524 17.4315 23.6371 17.5063 23.7321 17.6013C23.827 17.6962 23.9019 17.8094 23.9522 17.9339C24.0025 18.0584 24.0272 18.1918 24.0248 18.326C24.0224 18.4603 23.993 18.5927 23.9384 18.7154C23.8837 18.8381 23.8049 18.9485 23.7067 19.04V19.04Z" fill="#42B4FF"/>
</svg>
