<svg width="32" height="32" viewBox="0 0 32 32" fill="none" xmlns="http://www.w3.org/2000/svg">
<path d="M15.0003 7V13C14.9997 13.5303 14.7888 14.0386 14.4138 14.4136C14.0389 14.7885 13.5305 14.9994 13.0003 15H7.00027C6.47002 14.9994 5.96166 14.7885 5.58672 14.4136C5.21178 14.0386 5.00087 13.5303 5.00027 13V7C5.00087 6.46975 5.21178 5.96139 5.58672 5.58644C5.96166 5.2115 6.47002 5.0006 7.00027 5H13.0003C13.5305 5.0006 14.0389 5.2115 14.4138 5.58644C14.7888 5.96139 14.9997 6.46975 15.0003 7V7ZM13.0003 17H7.00027C6.47002 17.0006 5.96166 17.2115 5.58672 17.5864C5.21178 17.9614 5.00087 18.4697 5.00027 19V25C5.00087 25.5303 5.21178 26.0386 5.58672 26.4136C5.96166 26.7885 6.47002 26.9994 7.00027 27H13.0003C13.5305 26.9994 14.0389 26.7885 14.4138 26.4136C14.7888 26.0386 14.9997 25.5303 15.0003 25V19C14.9997 18.4697 14.7888 17.9614 14.4138 17.5864C14.0389 17.2115 13.5305 17.0006 13.0003 17V17ZM25.0003 5H19.0003C18.47 5.0006 17.9617 5.2115 17.5867 5.58644C17.2118 5.96139 17.0009 6.46975 17.0003 7V13C17.0009 13.5303 17.2118 14.0386 17.5867 14.4136C17.9617 14.7885 18.47 14.9994 19.0003 15H25.0003C25.5305 14.9994 26.0389 14.7885 26.4138 14.4136C26.7888 14.0386 26.9997 13.5303 27.0003 13V7C26.9997 6.46975 26.7888 5.96139 26.4138 5.58644C26.0389 5.2115 25.5305 5.0006 25.0003 5V5ZM18.0003 23C18.2655 23 18.5198 22.8946 18.7074 22.7071C18.8949 22.5196 19.0003 22.2652 19.0003 22V18C19.0003 17.7348 18.8949 17.4804 18.7074 17.2929C18.5198 17.1054 18.2655 17 18.0003 17C17.7351 17 17.4807 17.1054 17.2932 17.2929C17.1056 17.4804 17.0003 17.7348 17.0003 18V22C17.0003 22.2652 17.1056 22.5196 17.2932 22.7071C17.4807 22.8946 17.7351 23 18.0003 23ZM26.0003 19H23.0003V18C23.0003 17.7348 22.8949 17.4804 22.7074 17.2929C22.5198 17.1054 22.2655 17 22.0003 17C21.7351 17 21.4807 17.1054 21.2932 17.2929C21.1056 17.4804 21.0003 17.7348 21.0003 18V25H18.0003C17.7351 25 17.4807 25.1054 17.2932 25.2929C17.1056 25.4804 17.0003 25.7348 17.0003 26C17.0003 26.2652 17.1056 26.5196 17.2932 26.7071C17.4807 26.8946 17.7351 27 18.0003 27H22.0003C22.2655 27 22.5198 26.8946 22.7074 26.7071C22.8949 26.5196 23.0003 26.2652 23.0003 26V21H26.0003C26.2655 21 26.5198 20.8946 26.7074 20.7071C26.8949 20.5196 27.0003 20.2652 27.0003 20C27.0003 19.7348 26.8949 19.4804 26.7074 19.2929C26.5198 19.1054 26.2655 19 26.0003 19ZM26.0003 23C25.7351 23 25.4807 23.1054 25.2932 23.2929C25.1056 23.4804 25.0003 23.7348 25.0003 24V26C25.0003 26.2652 25.1056 26.5196 25.2932 26.7071C25.4807 26.8946 25.7351 27 26.0003 27C26.2655 27 26.5198 26.8946 26.7074 26.7071C26.8949 26.5196 27.0003 26.2652 27.0003 26V24C27.0003 23.7348 26.8949 23.4804 26.7074 23.2929C26.5198 23.1054 26.2655 23 26.0003 23Z" fill="#42B4FF"/>
</svg>
