<svg width="20" height="20" viewBox="0 0 20 20" fill="none" xmlns="http://www.w3.org/2000/svg">
<path d="M10 20C15.5228 20 20 15.5228 20 10C20 4.47715 15.5228 0 10 0C4.47715 0 0 4.47715 0 10C0 15.5228 4.47715 20 10 20Z" fill="#FF7058"/>
<path d="M10 17.5C5.875 17.5 2.5 14.125 2.5 10C2.5 5.875 5.875 2.5 10 2.5C14.125 2.5 17.5 5.875 17.5 10C17.5 14.125 14.125 17.5 10 17.5Z" fill="#F2F2F2"/>
<path d="M10 15C7.25 15 5 12.75 5 10C5 7.25 7.25 5 10 5C12.75 5 15 7.25 15 10C15 12.75 12.75 15 10 15Z" fill="#FF7058"/>
<path d="M10 12.5C8.625 12.5 7.5 11.375 7.5 10C7.5 8.625 8.625 7.5 10 7.5C11.375 7.5 12.5 8.625 12.5 10C12.5 11.375 11.375 12.5 10 12.5Z" fill="#CDD6E0"/>
<path d="M10 12.5C8.625 12.5 7.5 11.375 7.5 10C7.5 8.625 8.625 7.5 10 7.5C11.375 7.5 12.5 8.625 12.5 10C12.5 11.375 11.375 12.5 10 12.5Z" fill="#FFD15C"/>
<path opacity="0.2" d="M19.9168 11.2495C19.7501 12.4995 19.3751 13.6662 18.7918 14.7495L18.2501 14.5412L17.5418 13.0412L10.0418 10.3328C9.7085 10.2078 9.54182 9.83283 9.66682 9.49951C9.79182 9.16619 10.1668 8.99951 10.5001 9.12451L18.0001 11.8328L19.5001 11.1245L19.9168 11.2495Z" fill="#334A5E"/>
<path d="M16.8332 4.04199L10.7082 10.167C10.4582 10.417 10.0415 10.417 9.79153 10.167C9.54153 9.917 9.54153 9.50032 9.79153 9.25032L15.9582 3.16699C16.2082 2.91699 16.6249 2.91699 16.8749 3.16699C17.0832 3.41699 17.0832 3.79199 16.8332 4.04199Z" fill="#40596B"/>
<path d="M17.4165 2.58332L15.4581 4.54168V1.95832L17.4165 0V2.58332Z" fill="#FFD15C"/>
<path d="M18.0415 4.54137L19.9998 2.58301H17.4165L15.4581 4.54137H18.0415Z" fill="#EDC04E"/>
</svg>
