<svg width="65" height="64" viewBox="0 0 65 64" fill="none" xmlns="http://www.w3.org/2000/svg">
<path d="M53.8333 5.33301H11.1666C8.22525 5.33301 5.83325 7.72501 5.83325 10.6663V42.6663C5.83325 45.6077 8.22525 47.9997 11.1666 47.9997H19.1666V58.045L35.9053 47.9997H53.8333C56.7746 47.9997 59.1666 45.6077 59.1666 42.6663V10.6663C59.1666 7.72501 56.7746 5.33301 53.8333 5.33301ZM53.8333 42.6663H34.4279L24.4999 48.621V42.6663H11.1666V10.6663H53.8333V42.6663Z" fill="#DCDCDC"/>
<path d="M29.8333 16H35.1666V29.3333H29.8333V16ZM29.8333 32H35.1666V37.3333H29.8333V32Z" fill="#DCDCDC"/>
</svg>
