<svg width="28" height="28" viewBox="0 0 28 28" fill="none" xmlns="http://www.w3.org/2000/svg">
<path d="M25.9997 12.5654H25.0403V13.5223H25.9997V12.5654Z" fill="#010103"/>
<path d="M25.9997 11.6094H25.0403V12.5654H25.9997V11.6094Z" fill="#010103"/>
<path d="M25.9997 10.6519H25.0403V11.6093H25.9997V10.6519Z" fill="#010103"/>
<path d="M25.9997 9.6958H25.0403V10.6518H25.9997V9.6958Z" fill="#010103"/>
<path d="M25.9997 8.73999H25.0403V9.69597H25.9997V8.73999Z" fill="#010103"/>
<path d="M25.9997 7.78271H25.0403V8.74014H25.9997V7.78271Z" fill="#010103"/>
<path d="M25.0389 13.5222H24.0795V14.4791H25.0389V13.5222Z" fill="#010103"/>
<path d="M25.0389 6.82617H24.0795V7.78215H25.0389V6.82617Z" fill="#010103"/>
<path d="M25.0389 5.86963H24.0795V6.82648H25.0389V5.86963Z" fill="#010103"/>
<path d="M24.0794 14.479H23.12V15.435H24.0794V14.479Z" fill="#010103"/>
<path d="M24.0794 4.91284H23.12V5.86969H24.0794V4.91284Z" fill="#010103"/>
<path d="M23.12 15.4351H22.1592V16.3919H23.12V15.4351Z" fill="#010103"/>
<path d="M23.12 3.95752H22.1592V4.91293H23.12V3.95752Z" fill="#010103"/>
<path d="M22.1589 16.3918H21.1995V17.3487H22.1589V16.3918Z" fill="#010103"/>
<path d="M22.1589 3H21.1995V3.95742H22.1589V3Z" fill="#010103"/>
<path d="M21.1994 17.3486H20.24V18.3055H21.1994V17.3486Z" fill="#010103"/>
<path d="M21.1994 3H20.24V3.95742H21.1994V3Z" fill="#010103"/>
<path d="M20.2401 18.3054H19.2793V19.2614H20.2401V18.3054Z" fill="#010103"/>
<path d="M20.2401 3H19.2793V3.95742H20.2401V3Z" fill="#010103"/>
<path d="M19.2791 19.2615H18.3197V20.2183H19.2791V19.2615Z" fill="#010103"/>
<path d="M19.2791 3H18.3197V3.95742H19.2791V3Z" fill="#010103"/>
<path d="M18.3197 20.218H17.3589V21.1749H18.3197V20.218Z" fill="#010103"/>
<path d="M18.3197 3H17.3589V3.95742H18.3197V3Z" fill="#010103"/>
<path d="M17.3586 21.1748H16.3992V22.1308H17.3586V21.1748Z" fill="#010103"/>
<path d="M17.3586 3.95752H16.3992V4.91293H17.3586V3.95752Z" fill="#010103"/>
<path d="M16.3992 22.1309H15.4398V23.0877H16.3992V22.1309Z" fill="#010103"/>
<path d="M16.3992 4.91284H15.4398V5.86969H16.3992V4.91284Z" fill="#010103"/>
<path d="M15.4398 23.0876H14.479V24.0436H15.4398V23.0876Z" fill="#010103"/>
<path d="M15.4398 5.86963H14.479V6.82648H15.4398V5.86963Z" fill="#010103"/>
<path d="M14.479 24.0437H13.5196V24.9997H14.479V24.0437Z" fill="#010103"/>
<path d="M14.479 6.82617H13.5196V7.78215H14.479V6.82617Z" fill="#010103"/>
<path d="M13.5193 23.0876H12.5599V24.0436H13.5193V23.0876Z" fill="#010103"/>
<path d="M13.5193 5.86963H12.5599V6.82648H13.5193V5.86963Z" fill="#010103"/>
<path d="M12.5599 22.1309H11.6005V23.0877H12.5599V22.1309Z" fill="#010103"/>
<path d="M12.5599 4.91284H11.6005V5.86969H12.5599V4.91284Z" fill="#010103"/>
<path d="M11.6005 21.1748H10.6396V22.1308H11.6005V21.1748Z" fill="#010103"/>
<path d="M11.6005 3.95752H10.6396V4.91293H11.6005V3.95752Z" fill="#010103"/>
<path d="M10.6396 20.218H9.68024V21.1749H10.6396V20.218Z" fill="#010103"/>
<path d="M10.6396 3H9.68024V3.95742H10.6396V3Z" fill="#010103"/>
<path d="M9.67993 19.2615H8.72052V20.2183H9.67993V19.2615Z" fill="#010103"/>
<path d="M9.67993 3H8.72052V3.95742H9.67993V3Z" fill="#010103"/>
<path d="M8.72053 18.3054H7.75967V19.2614H8.72053V18.3054Z" fill="#010103"/>
<path d="M8.72053 3H7.75967V3.95742H8.72053V3Z" fill="#010103"/>
<path d="M7.75961 17.3486H6.8002V18.3055H7.75961V17.3486Z" fill="#010103"/>
<path d="M7.75961 3H6.8002V3.95742H7.75961V3Z" fill="#010103"/>
<path d="M6.8002 16.3918H5.84079V17.3487H6.8002V16.3918Z" fill="#010103"/>
<path d="M6.8002 3H5.84079V3.95742H6.8002V3Z" fill="#010103"/>
<path d="M5.84049 15.4351H4.87964V16.3919H5.84049V15.4351Z" fill="#010103"/>
<path d="M5.84049 3.95752H4.87964V4.91293H5.84049V3.95752Z" fill="#010103"/>
<path d="M4.87961 14.479H3.9202V15.435H4.87961V14.479Z" fill="#010103"/>
<path d="M4.87961 4.91284H3.9202V5.86969H4.87961V4.91284Z" fill="#010103"/>
<path d="M3.92026 13.5222H2.96085V14.4791H3.92026V13.5222Z" fill="#010103"/>
<path d="M24.0788 7.78252V5.86969H23.1194V4.91284H22.1586V15.4356H23.1194V14.4779H24.0788V13.521H25.0382V7.78108L24.0788 7.78252Z" fill="#FB1323"/>
<path d="M21.1994 3.95738H17.3588V4.91279H16.3994V5.86964H15.44V9.69587V6.82619H14.4789V7.78218H13.5183V6.82619H12.5589V5.86935H11.5995V4.9125H10.6395V14.4778V3.95508H7.76068V17.3463V18.3032H8.72155V17.3463V19.2592H9.68095V20.216H10.6404V21.1729H11.6012V14.4778V22.1297H12.5606V23.0866H13.5183V24.0425H14.4777V23.0866H15.4386V22.1297H16.398V9.69587V21.1749H17.3574V20.218H18.3183V19.2612H19.2777V18.3052H20.2385V17.3484H21.1979V16.3915H22.1573V10.6516H21.1979V8.74076H19.2777V6.82735V5.8705H20.2385V7.78333H22.1576V3.95738H21.1994Z" fill="#FB1323"/>
<path d="M7.76072 15.4351V3.95752H5.84161V16.3919H6.80104V17.3488H7.76072V15.4351Z" fill="#FB1323"/>
<path d="M4.87967 5.86971H3.92025V7.78255H2.96085V13.5225H3.92025V14.4779H4.87967V15.4339H5.84052V4.91113H4.87967V5.86971Z" fill="#FB1323"/>
<path d="M3.92026 6.82617H2.96085V7.78215H3.92026V6.82617Z" fill="#010103"/>
<path d="M3.92026 5.86963H2.96085V6.82648H3.92026V5.86963Z" fill="#010103"/>
<path d="M2.96086 12.5654H2V13.5223H2.96086V12.5654Z" fill="#010103"/>
<path d="M2.96086 11.6094H2V12.5654H2.96086V11.6094Z" fill="#010103"/>
<path d="M2.96086 10.6519H2V11.6093H2.96086V10.6519Z" fill="#010103"/>
<path d="M2.96086 9.6958H2V10.6518H2.96086V9.6958Z" fill="#010103"/>
<path d="M2.96086 8.73999H2V9.69597H2.96086V8.73999Z" fill="#010103"/>
<path d="M2.96086 7.78271H2V8.74014H2.96086V7.78271Z" fill="#010103"/>
</svg>
