<svg width="32" height="32" viewBox="0 0 32 32" fill="none" xmlns="http://www.w3.org/2000/svg">
<path d="M28.0067 14.3108L17.0517 4.32865C16.5708 3.89043 15.8457 3.89048 15.3651 4.3286L4.41003 14.3108C4.02485 14.6618 3.89761 15.2026 4.08579 15.6885C4.27402 16.1744 4.73231 16.4884 5.25341 16.4884H7.00312V26.4897C7.00312 26.8863 7.32463 27.2078 7.72117 27.2078H13.7259C14.1224 27.2078 14.4439 26.8863 14.4439 26.4897V20.4172H17.973V26.4898C17.973 26.8863 18.2945 27.2078 18.691 27.2078H24.6955C25.092 27.2078 25.4135 26.8864 25.4135 26.4898V16.4884H27.1636C27.6846 16.4884 28.1429 16.1744 28.3312 15.6885C28.5191 15.2026 28.3919 14.6618 28.0067 14.3108Z" fill="#C2C2C2"/>
<path d="M25.2259 5.43335H20.4037L25.944 10.471V6.15135C25.944 5.75482 25.6225 5.43335 25.2259 5.43335Z" fill="#C2C2C2"/>
</svg>
