<svg width="24" height="24" viewBox="0 0 24 24" fill="none" xmlns="http://www.w3.org/2000/svg">
<path d="M21.4133 6H2.58668C2.25427 6 1.93548 6.13205 1.70044 6.36709C1.46539 6.60214 1.33334 6.92093 1.33334 7.25333V19.4133C1.33334 19.7457 1.46539 20.0645 1.70044 20.2996C1.93548 20.5346 2.25427 20.6667 2.58668 20.6667H21.4133C21.7457 20.6667 22.0645 20.5346 22.2996 20.2996C22.5346 20.0645 22.6667 19.7457 22.6667 19.4133V7.25333C22.6667 6.92093 22.5346 6.60214 22.2996 6.36709C22.0645 6.13205 21.7457 6 21.4133 6V6ZM16.12 13.8867L9.60668 16.7933C9.50526 16.8389 9.39404 16.8584 9.28317 16.8501C9.17229 16.8417 9.06526 16.8057 8.97183 16.7454C8.87841 16.6851 8.80155 16.6024 8.74825 16.5048C8.69495 16.4072 8.66691 16.2979 8.66668 16.1867V10.3733C8.66691 10.2621 8.69495 10.1528 8.74825 10.0552C8.80155 9.95759 8.87841 9.87488 8.97183 9.81458C9.06526 9.75429 9.17229 9.71832 9.28317 9.70995C9.39404 9.70158 9.50526 9.72108 9.60668 9.76667L16.12 12.6667C16.2383 12.7188 16.3389 12.8043 16.4095 12.9126C16.4801 13.0209 16.5177 13.1474 16.5177 13.2767C16.5177 13.406 16.4801 13.5325 16.4095 13.6408C16.3389 13.7491 16.2383 13.8345 16.12 13.8867V13.8867Z" fill="white"/>
<path d="M20.0933 2.00016C20.0933 1.82335 20.0231 1.65378 19.898 1.52876C19.773 1.40373 19.6034 1.3335 19.4266 1.3335H4.75996C4.58315 1.3335 4.41358 1.40373 4.28855 1.52876C4.16353 1.65378 4.09329 1.82335 4.09329 2.00016V2.66683H20.0933V2.00016Z" fill="white"/>
<path d="M21.4133 4.33366C21.4133 4.15685 21.3431 3.98728 21.218 3.86225C21.093 3.73723 20.9235 3.66699 20.7466 3.66699H3.41331C3.2365 3.66699 3.06693 3.73723 2.94191 3.86225C2.81688 3.98728 2.74664 4.15685 2.74664 4.33366V5.00033H21.4133V4.33366Z" fill="white"/>
</svg>
