<svg width="229" height="192" viewBox="0 0 229 192" fill="none" xmlns="http://www.w3.org/2000/svg">
<path d="M143.471 152.088H109.284V165.381H143.471V152.088Z" fill="#F2F2F3"/>
<path d="M43.5896 32.1143H209.17C212.6 32.1143 215.383 34.9013 215.383 38.3364V145.867C215.383 149.302 212.6 152.089 209.17 152.089H43.5896C40.16 152.089 37.3774 149.302 37.3774 145.867V38.3364C37.3774 34.9013 40.16 32.1143 43.5896 32.1143Z" fill="#F7F7F7"/>
<path d="M215.377 37.3787C215.377 34.4712 213.024 32.1143 210.121 32.1143H42.6334C39.7306 32.1143 37.3774 34.4712 37.3774 37.3787V137.603H215.377V37.3787Z" fill="#084970"/>
<path d="M161.993 168.072H90.7623C89.8577 168.072 89.1191 167.338 89.1191 166.426V164.711C89.1191 163.805 89.852 163.065 90.7623 163.065H161.999C162.903 163.065 163.642 163.799 163.642 164.711V166.426C163.636 167.338 162.903 168.072 161.993 168.072Z" fill="#D3D3D3"/>
<path d="M209.038 40.4473H44.4194V129.443H209.038V40.4473Z" fill="#CCE9FF"/>
<path d="M137.728 84.9475H24.4953C21.1115 84.9475 18.3748 82.2006 18.3748 78.8171V6.13035C18.3748 2.74117 21.1173 0 24.4953 0H137.734C141.118 0 143.854 2.7469 143.854 6.13035V78.8114C143.849 82.2006 141.112 84.9475 137.728 84.9475Z" fill="#42B4FF"/>
<path d="M222.104 140.821H142.251C138.719 140.821 135.85 137.947 135.85 134.409V84.5119C135.85 80.9737 138.719 78.1006 142.251 78.1006H222.099C225.631 78.1006 228.5 80.9737 228.5 84.5119V134.409C228.505 137.953 225.637 140.821 222.104 140.821Z" fill="#0B4870"/>
<path d="M7.0614 84.3369C7.0614 84.3369 0.5 99.7402 0.5 108.084C0.5 116.422 11.7563 117.288 11.7563 117.288L13.6457 112.764C13.6457 112.764 5.48689 111.301 6.46022 101.547L7.0614 84.3369Z" fill="#FFBE55"/>
<path d="M23.9116 192C36.424 192 46.5673 190.252 46.5673 188.095C46.5673 185.938 36.424 184.189 23.9116 184.189C11.3992 184.189 1.25586 185.938 1.25586 188.095C1.25586 190.252 11.3992 192 23.9116 192Z" fill="#D3D3D3"/>
<path d="M17.3389 74.7422V78.5041C17.3389 78.5041 18.4611 80.4195 19.9726 80.5514C21.4841 80.6833 22.8296 78.9055 22.8296 78.9055V75.0117L17.3389 74.7422Z" fill="#FEE3CA"/>
<path d="M26.7805 67.5922C26.7633 67.8101 26.7461 68.028 26.7232 68.2517C26.666 68.8137 26.5916 69.3871 26.4885 69.9606C26.4828 69.9836 26.4828 70.0008 26.477 70.018C25.9732 72.7878 26.1106 75.3397 22.4005 76.3892C16.7495 77.9891 14.8944 73.6193 14.1043 70.8438C14.0184 70.5341 13.9382 70.1957 13.8695 69.8287C13.8695 69.8173 13.8638 69.8 13.8581 69.7828C13.7837 69.3757 13.7149 68.9341 13.6577 68.4868C13.6176 68.1542 13.5775 67.8159 13.5489 67.4718C13.4688 66.646 13.4172 65.8145 13.3829 65.0747C13.3027 63.3887 14.3104 61.8403 15.8849 61.2382C18.1522 60.3665 21.5989 59.6726 24.8625 61.5249C26.0705 62.2074 26.8263 63.4747 26.8492 64.8625C26.8606 65.6424 26.8492 66.5829 26.7805 67.5922Z" fill="#FEE3CA"/>
<path d="M14.7227 73.9866C14.7227 73.9866 13.0337 70.7465 12.1692 67.7759C11.3791 65.052 11.4707 63.0219 12.1062 61.5653C12.736 60.1087 14.259 58.503 16.6236 57.9295C18.9882 57.3618 22.0914 57.4134 23.6602 57.0521C26.3168 56.4328 28.0059 57.1898 28.7559 58.0786C30.1186 59.6958 29.2368 63.2283 26.689 63.819C26.689 63.819 25.0859 64.2721 25.5954 65.5738C26.1164 66.9157 25.3206 68.1544 25.3206 68.1544C25.3206 68.1544 24.7423 66.7896 23.6545 66.8871C23.6545 66.8871 21.8624 66.8871 22.1487 69.5824C22.3834 71.7902 23.6488 72.031 24.4332 71.6812C24.4332 71.6812 24.2442 73.2927 23.351 74.1185C22.767 74.6575 21.3357 75.8274 20.2822 76.1485C18.8279 76.5729 16.1598 77.1578 14.7227 73.9866Z" fill="#084970"/>
<path d="M12.7174 189.458C13.1411 189.515 13.6506 189.544 14.08 189.44L14.7213 189.234L15.7748 188.919C15.7748 188.919 19.525 188.144 20.8647 186.843C22.2045 185.541 22.1701 184.491 20.0861 183.792C18.002 183.092 15.9523 182.656 14.8415 182.209C14.8415 182.209 11.5036 182.49 11.6868 184.279C11.6467 185.942 11.5437 186.82 11.767 188.5C11.8299 188.999 12.2193 189.389 12.7174 189.458Z" fill="#084970"/>
<path d="M15.9238 179.911V183.427C14.8245 183.685 13.6394 183.811 12.7118 183.375L12.5 179.647L15.9238 179.911Z" fill="#FEE3CA"/>
<path d="M18.964 177.049C18.8266 172.479 19.6339 164.204 19.4851 157.758C19.3247 150.676 18.8381 140.732 18.4945 133.976H18.4888C18.3514 131.275 18.2312 129.234 18.1796 128.396L7.75928 128.534C7.78218 128.953 7.89096 130.96 8.06273 133.758C8.51504 141.443 9.36241 155.103 9.86053 158.171C10.3701 161.319 10.1411 171.647 9.97503 177.049C9.97503 177.049 9.78037 182.262 10.2155 182.211C10.6506 182.159 18.7236 182.405 18.7236 181.654C18.7236 180.903 18.964 177.049 18.964 177.049Z" fill="#0B538C"/>
<path d="M18.186 128.396L7.76562 128.534C7.78853 128.953 7.89731 130.96 8.06907 133.758C11.6074 134.194 15.2889 134.378 18.4952 133.976C18.3578 131.27 18.2375 129.228 18.186 128.396Z" fill="#0A4A72"/>
<path d="M25.6578 189.458C26.0815 189.515 26.5911 189.544 27.0205 189.44L27.6617 189.234L28.7152 188.919C28.7152 188.919 32.4654 188.144 33.8052 186.843C35.1449 185.541 35.1106 184.491 33.0265 183.792C30.9424 183.092 28.8927 182.656 27.782 182.209C27.782 182.209 24.444 182.49 24.6272 184.279C24.5872 185.942 24.4841 186.82 24.7074 188.5C24.7704 188.999 25.1597 189.389 25.6578 189.458Z" fill="#084970"/>
<path d="M28.8638 179.91V183.426C27.7645 183.684 26.5793 183.81 25.6518 183.374L25.4399 179.646L28.8638 179.91Z" fill="#FEE3CA"/>
<path d="M31.904 177.049C31.7666 172.479 32.5739 164.204 32.425 157.758C32.2647 150.676 31.778 140.732 31.4345 133.976H31.4288C31.2913 131.275 31.1711 129.234 31.1196 128.396L20.6992 128.534C20.7221 128.953 20.8309 130.96 21.0027 133.758C21.455 141.443 22.3024 155.103 22.8005 158.171C23.31 161.319 23.081 171.647 22.915 177.049C22.915 177.049 22.7203 182.262 23.1555 182.211C23.5906 182.159 31.6635 182.405 31.6635 181.654C31.6635 180.903 31.904 177.049 31.904 177.049Z" fill="#0B538C"/>
<path d="M31.1308 128.396L20.7104 128.534C20.7334 128.953 20.8421 130.96 21.0139 133.758C24.5522 134.194 28.2337 134.378 31.44 133.976C31.2969 131.27 31.1766 129.228 31.1308 128.396Z" fill="#0A4A72"/>
<path d="M33.9482 129.606C24.5183 131.986 15.1057 131.992 5.69869 129.606C5.66434 127.003 5.62426 118.607 5.71587 109.735C5.72159 109.328 5.72732 108.927 5.72732 108.52C5.72732 108.422 5.72732 108.325 5.73305 108.233C5.73877 107.837 5.7445 107.442 5.75022 107.04C5.75022 106.799 5.75595 106.564 5.76167 106.329C5.76167 106.214 5.7674 106.1 5.7674 105.985C5.7674 105.853 5.77313 105.721 5.77313 105.584C5.77885 105.337 5.77885 105.09 5.78457 104.844C5.78457 104.723 5.7903 104.597 5.7903 104.477C5.7903 104.351 5.79603 104.23 5.79603 104.104C5.80175 103.863 5.80748 103.628 5.80748 103.393C5.8132 103.146 5.81321 102.9 5.81893 102.653C5.82466 102.51 5.82465 102.372 5.83038 102.229C5.83038 102.12 5.83611 102.017 5.83611 101.908C5.84756 101.661 5.84756 101.414 5.85328 101.168C5.85901 101.019 5.859 100.87 5.86473 100.721C5.86473 100.635 5.87046 100.549 5.87046 100.463C5.87619 100.239 5.88191 100.009 5.88764 99.7858C5.89336 99.6711 5.89909 99.5622 5.89909 99.4532V99.436C5.90481 99.2926 5.90481 99.1493 5.91053 99.0116V98.9887C6.11093 91.3788 6.46591 85.1739 7.06708 84.3424C7.76559 83.379 9.88401 82.1231 12.0654 80.9417C14.2468 79.7547 16.5027 78.6421 17.476 77.9482C17.476 77.9482 19.7261 78.8773 22.4629 78.2178C22.4629 78.2178 22.6347 78.1891 22.7377 78.0572L23.0412 78.2579C25.4287 79.726 30.9194 82.341 32.2134 84.1187C32.8146 84.9502 33.2211 91.2699 33.4902 98.9887C33.5073 99.4762 33.5245 99.9693 33.5417 100.468C33.5417 100.554 33.5474 100.64 33.5474 100.726C33.5531 100.875 33.5589 101.025 33.5589 101.174C33.5703 101.42 33.576 101.661 33.5818 101.913C33.5875 102.022 33.5875 102.126 33.5932 102.235C33.5989 102.378 33.6047 102.516 33.6047 102.659C33.6104 102.905 33.6219 103.152 33.6276 103.399C33.6333 103.634 33.639 103.869 33.6448 104.11C33.6505 104.236 33.6505 104.356 33.6562 104.483C33.6562 104.603 33.6619 104.729 33.6676 104.85C33.6734 105.096 33.6791 105.343 33.6848 105.589C33.6905 105.721 33.6906 105.853 33.6963 105.991C33.6963 106.105 33.702 106.22 33.702 106.335C33.7077 106.57 33.7134 106.811 33.7192 107.046C33.7306 107.442 33.7364 107.843 33.7478 108.239C33.7478 108.336 33.7535 108.434 33.7535 108.525C33.765 108.933 33.7707 109.34 33.7764 109.741C33.9425 118.636 33.9768 127.025 33.9482 129.606Z" fill="#FFBE55"/>
<path d="M58.7395 80.7368C58.4074 80.7139 57.7204 81.6716 57.1192 82.6063C57.0849 82.5891 57.0505 82.5662 57.0161 82.549C57.686 81.1956 58.7567 78.8272 58.0296 78.8616C57.5543 78.8846 56.5753 80.8745 56.0199 82.096C55.9512 82.0673 55.8882 82.0443 55.8195 82.0214C56.455 80.5591 57.6116 77.686 56.7871 77.7663C56.2375 77.8179 55.2012 80.3354 54.7031 81.6372C54.6401 81.62 54.5828 81.6028 54.5256 81.5798C55.018 80.3182 55.871 77.8695 55.0523 77.9498C54.308 78.0186 53.203 81.8666 53.203 81.8666L52.6132 83.2486C52.6132 83.2486 52.1094 83.111 52.0579 81.987C52.0006 80.863 51.3995 80.1863 51.1189 81.5282C50.804 83.0422 50.9929 84.4644 50.741 85.5138C50.6265 85.9898 50.7525 86.483 50.9242 86.8844C51.1246 87.3489 51.4567 87.7503 51.8689 88.0485C52.9682 88.8457 54.4969 88.6564 55.3558 87.607C56.352 86.4027 57.4971 84.7912 57.8234 83.4608C58.5391 82.2623 59.3121 80.7713 58.7395 80.7368Z" fill="#FEE3CA"/>
<path d="M54.6348 88.1973C54.6348 88.1973 51.148 99.3512 44.5637 104.432C43.5102 105.246 42.0387 105.545 40.7906 105.08C38.655 104.283 35.4201 102.998 33.5421 100.464C33.5421 100.464 30.1298 88.8683 32.2138 84.1143C32.2138 84.1143 35.9526 92.1772 42.0845 97.1434C42.1017 97.1606 42.1246 97.1778 42.1418 97.1893C42.2334 97.2638 42.3193 97.3326 42.4109 97.4015C42.4109 97.4015 42.5254 97.3097 42.7201 97.1549C42.7372 97.1377 42.7601 97.1262 42.7773 97.109C43.6419 96.4094 45.8519 94.5743 47.2031 92.9858C48.9093 90.9786 50.8846 86.7923 50.8846 86.7923C51.9381 87.6812 53.1691 88.1859 54.6348 88.1973Z" fill="#FFBE55"/>
<path d="M42.9943 100.837C42.8913 100.865 42.7882 100.842 42.7081 100.779C42.6623 100.739 42.6222 100.687 42.605 100.619C42.2958 99.5348 42.1355 98.3534 42.084 97.1377C42.1012 97.1549 42.1241 97.1721 42.1412 97.1836C42.2329 97.2581 42.3187 97.3269 42.4103 97.3958C42.4103 97.3958 42.5248 97.304 42.7195 97.1492C42.7653 98.3018 42.9142 99.4201 43.2062 100.441C43.2577 100.619 43.1604 100.791 42.9943 100.837Z" fill="#FDBD56"/>
<path d="M202.615 26.8379H137.763C135.261 26.8379 133.228 28.8737 133.228 31.3797V51.3994C133.228 53.9055 135.261 55.9413 137.763 55.9413H191.645L187.317 65.1683L200.714 55.9413H202.615C205.117 55.9413 207.15 53.9055 207.15 51.3994V31.3797C207.15 28.8737 205.123 26.8379 202.615 26.8379Z" fill="#FFBE55"/>
<path d="M200.743 34.9639H139.097V36.7875H200.743V34.9639Z" fill="white"/>
<path d="M200.743 40.0674H139.097V41.891H200.743V40.0674Z" fill="white"/>
<path d="M200.743 45.624H139.097V47.4476H200.743V45.624Z" fill="white"/>
<path d="M57.5546 102.317H122.407C124.909 102.317 126.942 104.353 126.942 106.859V126.879C126.942 129.385 124.909 131.421 122.407 131.421H68.5246L72.8531 140.648L59.4554 131.421H57.5546C55.0526 131.421 53.02 129.385 53.02 126.879V106.859C53.02 104.347 55.0526 102.317 57.5546 102.317Z" fill="#008CE8"/>
<path d="M120.735 110.318H59.0889V112.142H120.735V110.318Z" fill="white"/>
<path d="M120.735 115.422H59.0889V117.245H120.735V115.422Z" fill="white"/>
<path d="M120.735 120.972H59.0889V122.795H120.735V120.972Z" fill="white"/>
<path d="M84.6756 9.09521C84.6756 9.09521 79.3509 8.08592 74.9651 10.9246C70.5852 13.7632 70.8142 18.8613 66.9609 20.1402C63.1077 21.419 62.4206 26.6719 63.9665 30.5428C65.5124 34.4137 64.7394 39.8387 61.5618 41.129C58.3842 42.4193 61.0179 50.5969 66.9609 49.3066C72.904 48.0163 71.444 43.4917 78.4004 47.2594C85.3569 51.027 92.216 44.0824 92.216 44.0824C92.216 44.0824 99.579 48.3661 101.715 43.8472C103.85 39.3283 96.888 39.1678 98.9434 33.5363C100.999 27.9049 97.8728 18.5517 96.47 16.4872C95.0673 14.4227 91.0652 8.73393 84.6756 9.09521Z" fill="#0E538C"/>
<path d="M96.047 30.5606C97.3466 30.5606 98.4002 29.5053 98.4002 28.2036C98.4002 26.9019 97.3466 25.8467 96.047 25.8467C94.7474 25.8467 93.6938 26.9019 93.6938 28.2036C93.6938 29.5053 94.7474 30.5606 96.047 30.5606Z" fill="#FCD2B1"/>
<path d="M70.0758 30.5606C71.3754 30.5606 72.429 29.5053 72.429 28.2036C72.429 26.9019 71.3754 25.8467 70.0758 25.8467C68.7762 25.8467 67.7227 26.9019 67.7227 28.2036C67.7227 29.5053 68.7762 30.5606 70.0758 30.5606Z" fill="#FCD2B1"/>
<path d="M83.0558 43.0217C90.4677 43.0217 96.4763 36.0279 96.4763 27.4005C96.4763 18.7732 90.4677 11.7793 83.0558 11.7793C75.6438 11.7793 69.6353 18.7732 69.6353 27.4005C69.6353 36.0279 75.6438 43.0217 83.0558 43.0217Z" fill="#FEE3CA"/>
<path d="M86.4389 39.5059H79.6714V55.0066H86.4389V39.5059Z" fill="#FEE3CA"/>
<path d="M88.7692 20.2548C88.7692 20.2548 77.616 29.8316 69.4686 28.6159C61.3213 27.4001 75.1082 8.38975 81.1486 9.11805C87.1947 9.84635 93.1148 10.5689 96.2581 20.6218C96.2638 20.616 94.3286 13.9581 88.7692 20.2548Z" fill="#0E538C"/>
<path d="M90.127 18.9068C90.127 18.9068 92.5946 24.7963 96.1845 25.6737C99.7744 26.5511 95.7723 17.4674 93.7168 15.0933C91.6556 12.7191 90.127 18.9068 90.127 18.9068Z" fill="#0E538C"/>
<path d="M40.5666 37.2641C40.5666 37.2641 36.7133 25.4966 37.9443 25.0837C39.1753 24.6708 40.1143 29.1783 40.1143 29.1783C40.1143 29.1783 37.1256 22.9676 38.2993 22.9103C39.473 22.8529 41.1105 28.7195 41.1105 28.7195C41.1105 28.7195 38.0016 21.0293 38.826 20.5591C39.0436 20.4329 39.3986 20.9146 39.7994 21.6888C40.9158 23.8278 42.3987 28.1976 42.3987 28.1976C42.3987 28.1976 39.8795 21.4365 40.286 21.2014C40.6983 20.9662 44.6832 27.0736 44.9179 29.9467C45.1527 32.8255 46.2634 26.6608 47.3226 26.5403C48.3761 26.4256 46.6184 33.7029 46.6184 33.7029L45.834 38.3423L42.6793 43.3888H40.641L40.5666 37.2641Z" fill="#FEE3CA"/>
<path d="M63.3196 55.0064C63.3196 55.0064 71.2264 48.6753 79.6658 48.8875C79.6658 48.8875 80.9368 51.9498 83.0495 51.9441C85.1622 51.9384 86.4333 48.8818 86.4333 48.8818C86.4333 48.8818 95.2448 49.2029 100.501 52.8846C105.751 56.5662 126.025 84.8668 126.025 84.8668H109.742L98.0846 65.6155C98.0846 65.6155 102.814 73.8218 101.657 80.4511C100.501 87.0803 100.289 84.8725 100.289 84.8725L66.5716 85.2281C66.5716 85.2281 61.2126 74.4928 65.73 67.0606C65.73 67.0606 40.8356 80.7722 31.2741 76.9873C21.7182 73.2025 39.7821 37.1143 39.7821 37.1143L46.4008 38.4848C46.4008 38.4848 35.7915 64.4686 39.1523 65.627C42.5246 66.7739 63.3196 55.0064 63.3196 55.0064Z" fill="#084970"/>
<path d="M170.145 99.7943C171.132 99.7943 171.932 98.9932 171.932 98.005C171.932 97.0169 171.132 96.2158 170.145 96.2158C169.159 96.2158 168.359 97.0169 168.359 98.005C168.359 98.9932 169.159 99.7943 170.145 99.7943Z" fill="#FCD2B1"/>
<path d="M189.83 99.7943C190.817 99.7943 191.617 98.9932 191.617 98.005C191.617 97.0169 190.817 96.2158 189.83 96.2158C188.844 96.2158 188.044 97.0169 188.044 98.005C188.044 98.9932 188.844 99.7943 189.83 99.7943Z" fill="#FCD2B1"/>
<path d="M179.993 109.235C185.612 109.235 190.167 103.933 190.167 97.3928C190.167 90.8527 185.612 85.5508 179.993 85.5508C174.374 85.5508 169.819 90.8527 169.819 97.3928C169.819 103.933 174.374 109.235 179.993 109.235Z" fill="#FEE3CA"/>
<path d="M177.429 118.321L182.559 118.321L182.559 106.571L177.429 106.571L177.429 118.321Z" fill="#FEE3CA"/>
<path d="M212.205 104.87C212.205 104.87 215.125 95.9467 214.191 95.637C213.258 95.3273 212.548 98.7452 212.548 98.7452C212.548 98.7452 214.816 94.037 213.928 93.9912C213.041 93.9453 211.798 98.3954 211.798 98.3954C211.798 98.3954 214.151 92.569 213.533 92.2134C213.367 92.1216 213.098 92.4829 212.794 93.0679C211.947 94.6908 210.825 98.0054 210.825 98.0054C210.825 98.0054 212.737 92.8844 212.422 92.7066C212.113 92.5288 209.09 97.1567 208.913 99.3358C208.735 101.515 207.893 96.8413 207.092 96.7552C206.29 96.6635 207.624 102.186 207.624 102.186L208.22 105.701L210.607 109.526H212.153L212.205 104.87Z" fill="#FEE3CA"/>
<path d="M194.954 118.323C194.954 118.323 188.959 113.523 182.564 113.684C182.564 113.684 181.602 116.006 179.999 116C178.396 115.995 177.434 113.678 177.434 113.678C177.434 113.678 170.752 113.919 166.773 116.712C162.794 119.504 152.958 140.958 152.958 140.958H159.765L168.605 126.363C168.605 126.363 168.577 128.525 168.308 134.672C168.147 138.325 167.993 140.969 167.993 140.969L192.486 141.227C192.486 141.227 193.19 139.535 193.122 127.453C193.122 127.453 211.993 137.849 219.236 134.976C226.478 132.103 212.789 104.749 212.789 104.749L207.773 105.787C207.773 105.787 215.818 125.486 213.27 126.363C210.716 127.24 194.954 118.323 194.954 118.323Z" fill="#FFBE55"/>
<path d="M190.116 96.239C190.116 96.239 180.165 94.7652 176.564 92.1961C176.564 92.1961 170.942 97.5809 169.567 96.3136C168.193 95.0462 171.611 85.0908 178.722 85.0908C185.833 85.0908 191.759 90.5043 190.786 95.4935C189.813 100.483 190.116 96.239 190.116 96.239Z" fill="#0E538C"/>
<path d="M76.878 49.0425C76.878 49.0425 76.4257 52.0188 78.9334 53.6532C81.4412 55.2876 83.0558 51.9443 83.0558 51.9443C83.0558 51.9443 80.5824 51.3593 79.672 48.8877C79.672 48.8877 77.8456 48.8934 76.878 49.0425Z" fill="#CDE8F9"/>
<path d="M86.4394 48.8828L89.4682 49.1753C89.4682 49.1753 87.9967 53.1093 86.0787 53.8662C84.1607 54.6232 83.0557 51.9509 83.0557 51.9509C83.0557 51.9509 85.1569 51.4233 86.4394 48.8828Z" fill="#CDE8F9"/>
<path d="M69.6353 27.4016C69.6353 27.4016 74.4218 15.7717 81.1091 15.0147C87.7965 14.2635 93.5735 14.7681 96.2645 24.15C96.2645 24.15 95.9896 13.8162 84.2753 13.5008C72.561 13.1854 69.8013 26.1858 69.6353 27.4016Z" fill="#FDBD56"/>
<path opacity="0.75" d="M83.1984 81.8442C86.1518 81.8442 88.546 79.4461 88.546 76.488C88.546 73.5299 86.1518 71.1318 83.1984 71.1318C80.245 71.1318 77.8508 73.5299 77.8508 76.488C77.8508 79.4461 80.245 81.8442 83.1984 81.8442Z" fill="#FDBD56"/>
<path opacity="0.75" d="M99.5046 81.8442C102.458 81.8442 104.852 79.4461 104.852 76.488C104.852 73.5299 102.458 71.1318 99.5046 71.1318C96.5512 71.1318 94.157 73.5299 94.157 76.488C94.157 79.4461 96.5512 81.8442 99.5046 81.8442Z" fill="#FDBD56"/>
<path opacity="0.75" d="M66.1772 81.8442C69.1306 81.8442 71.5248 79.4461 71.5248 76.488C71.5248 73.5299 69.1306 71.1318 66.1772 71.1318C63.2238 71.1318 60.8296 73.5299 60.8296 76.488C60.8296 79.4461 63.2238 81.8442 66.1772 81.8442Z" fill="#FDBD56"/>
<path d="M85.4266 75.6224L84.499 75.9779V75.6912C84.499 75.4389 84.2929 75.2324 84.041 75.2324H81.2412C80.9893 75.2324 80.7832 75.4389 80.7832 75.6912V77.2854C80.7832 77.5378 80.9893 77.7442 81.2412 77.7442H84.041C84.2929 77.7442 84.499 77.5378 84.499 77.2854V77.0503L85.4323 77.3543C85.5296 77.3887 85.6327 77.3141 85.6327 77.2109V75.7658C85.6327 75.6568 85.5296 75.5822 85.4266 75.6224Z" fill="#F7F7F7"/>
<path d="M66.1774 77.8938C65.6106 77.8938 65.1526 77.435 65.1526 76.8673V74.6193C65.1526 74.0516 65.6106 73.5928 66.1774 73.5928C66.7443 73.5928 67.2023 74.0516 67.2023 74.6193V76.8673C67.2023 77.435 66.7443 77.8938 66.1774 77.8938Z" fill="#F7F7F7"/>
<path d="M64.8081 75.9316V77.0843C64.8081 77.8413 65.4207 78.4606 66.1822 78.4606C66.938 78.4606 67.5563 77.847 67.5563 77.0843V75.9316" stroke="#F7F7F7" stroke-width="0.25" stroke-miterlimit="10"/>
<path d="M66.5772 76.4883H65.7241V79.1664H66.5772V76.4883Z" fill="#F7F7F7"/>
<path d="M67.4366 78.9727H64.8716V79.3575H67.4366V78.9727Z" fill="#F7F7F7"/>
<path d="M101.898 77.7384L101.143 76.9815C100.994 76.8324 100.742 76.8381 100.587 76.9929L100.204 77.3714C100.181 77.3599 100.152 77.3427 100.129 77.3313C99.8887 77.1994 99.5624 77.0159 99.2131 76.666C98.8639 76.3162 98.6806 75.9894 98.549 75.7485C98.5318 75.7256 98.5203 75.6969 98.5089 75.674L98.7665 75.4159L98.8925 75.2897C99.0471 75.1349 99.0528 74.8826 98.9039 74.7335L98.1482 73.9765C97.9993 73.8274 97.7474 73.8331 97.5928 73.988L97.381 74.2002L97.3867 74.2059C97.318 74.2976 97.255 74.4009 97.2092 74.5156C97.1691 74.6245 97.1405 74.7277 97.129 74.831C97.0317 75.6625 97.4096 76.4195 98.4344 77.446C99.8544 78.8682 100.994 78.7592 101.045 78.7535C101.154 78.742 101.257 78.7133 101.36 78.6732C101.475 78.6273 101.578 78.57 101.669 78.4954L101.675 78.5011L101.893 78.289C102.047 78.1341 102.047 77.8875 101.898 77.7384Z" fill="#F7F7F7"/>
<path opacity="0.75" d="M180.223 138.28C182.117 138.28 183.652 136.742 183.652 134.845C183.652 132.948 182.117 131.41 180.223 131.41C178.328 131.41 176.793 132.948 176.793 134.845C176.793 136.742 178.328 138.28 180.223 138.28Z" fill="#0B538C"/>
<path opacity="0.75" d="M190.678 138.28C192.572 138.28 194.107 136.742 194.107 134.845C194.107 132.948 192.572 131.41 190.678 131.41C188.784 131.41 187.248 132.948 187.248 134.845C187.248 136.742 188.784 138.28 190.678 138.28Z" fill="#0B538C"/>
<path opacity="0.75" d="M169.31 138.28C171.204 138.28 172.739 136.742 172.739 134.845C172.739 132.948 171.204 131.41 169.31 131.41C167.416 131.41 165.88 132.948 165.88 134.845C165.88 136.742 167.416 138.28 169.31 138.28Z" fill="#0B538C"/>
<path d="M181.649 134.29L181.053 134.519V134.335C181.053 134.175 180.922 134.043 180.761 134.043H178.969C178.809 134.043 178.677 134.175 178.677 134.335V135.356C178.677 135.517 178.809 135.649 178.969 135.649H180.761C180.922 135.649 181.053 135.517 181.053 135.356V135.207L181.655 135.402C181.717 135.425 181.78 135.373 181.78 135.31V134.387C181.786 134.313 181.717 134.261 181.649 134.29Z" fill="#F7F7F7"/>
<path d="M169.452 135.745H169.172C168.886 135.745 168.656 135.515 168.656 135.229V133.508C168.656 133.222 168.886 132.992 169.172 132.992H169.452C169.739 132.992 169.968 133.222 169.968 133.508V135.229C169.968 135.515 169.739 135.745 169.452 135.745Z" fill="#F7F7F7"/>
<path d="M168.433 134.482V135.222C168.433 135.71 168.828 136.105 169.315 136.105C169.801 136.105 170.197 135.71 170.197 135.222V134.482" stroke="#F7F7F7" stroke-width="0.25" stroke-miterlimit="10"/>
<path d="M169.566 134.839H169.022V136.554H169.566V134.839Z" fill="#F7F7F7"/>
<path d="M170.116 136.434H168.473V136.681H170.116V136.434Z" fill="#F7F7F7"/>
<path d="M192.212 135.642L191.725 135.154C191.628 135.057 191.468 135.063 191.37 135.16L191.124 135.407C191.107 135.401 191.095 135.39 191.078 135.378C190.924 135.292 190.712 135.177 190.489 134.954C190.265 134.73 190.151 134.518 190.065 134.363C190.053 134.346 190.048 134.329 190.036 134.317L190.202 134.151L190.282 134.071C190.38 133.973 190.386 133.812 190.288 133.715L189.802 133.228C189.704 133.13 189.544 133.136 189.447 133.233L189.309 133.371L189.315 133.377C189.269 133.434 189.229 133.503 189.2 133.577C189.172 133.646 189.16 133.715 189.149 133.778C189.086 134.311 189.326 134.793 189.985 135.453C190.895 136.364 191.628 136.296 191.657 136.29C191.725 136.284 191.794 136.267 191.857 136.238C191.931 136.21 191.994 136.169 192.057 136.124H192.063L192.2 135.986C192.304 135.9 192.304 135.739 192.212 135.642Z" fill="#F7F7F7"/>
</svg>
